%YAML 1.1
%TAG !u! tag:unity3d.com,2011:
--- !u!114 &11400000
MonoBehaviour:
  m_ObjectHideFlags: 0
  m_CorrespondingSourceObject: {fileID: 0}
  m_PrefabInstance: {fileID: 0}
  m_PrefabAsset: {fileID: 0}
  m_GameObject: {fileID: 0}
  m_Enabled: 1
  m_EditorHideFlags: 0
  m_Script: {fileID: 11500000, guid: 5e18209b17ba9474aada21a84fa7bdfa, type: 3}
  m_Name: BigBang
  m_EditorClassIdentifier: 
  magicName: 
  magicType: 0
  BaseType: 5
  basePower: 200
  cost: 100
  DamageType: 1
  statusCondition: 0
  attackDirection: 0
