%YAML 1.1
%TAG !u! tag:unity3d.com,2011:
--- !u!114 &11400000
MonoBehaviour:
  m_ObjectHideFlags: 0
  m_CorrespondingSourceObject: {fileID: 0}
  m_PrefabInstance: {fileID: 0}
  m_PrefabAsset: {fileID: 0}
  m_GameObject: {fileID: 0}
  m_Enabled: 1
  m_EditorHideFlags: 0
  m_Script: {fileID: 11500000, guid: 705b0fab7b55df84e86cfeabf881abc7, type: 3}
  m_Name: ESlime
  m_EditorClassIdentifier: 
  characterName: ESlime
  type: 2
  NType: 5
  characterHud: {fileID: 0}
  characterPrefab: {fileID: 1835755406996749327, guid: 0f4bb78a69baea748b6d9b21f44d9400, type: 3}
  elementIcon: {fileID: 0}
  STR: 9
  DEF: 9
  MGS: 9
  MDF: 9
  SPD: 9
  DEX: 6
  DEXBlind: 3
  AGL: 0
  EVA: 0
  isBlind: 0
  luck: 10
  uniqueMagic: []
